<?xml version="1.0" encoding="UTF-8"?>
<svg width="15px" height="15px" viewBox="0 0 15 15" version="1.1" xmlns="http://www.w3.org/2000/svg" xmlns:xlink="http://www.w3.org/1999/xlink">
    <!-- Generator: Sketch 45.1 (43504) - http://www.bohemiancoding.com/sketch -->
    <title>cross</title>
    <desc>Created with Sketch.</desc>
    <defs></defs>
    <g id="v2" stroke="none" stroke-width="1" fill="none" fill-rule="evenodd">
        <g id="1366_header-3" transform="translate(-1115.000000, -34.000000)" fill="#333333">
            <g id="Group-5" transform="translate(844.000000, 19.000000)">
                <g id="btn" transform="translate(256.000000, 1.000000)">
                    <path d="M20.8228254,21.4350288 L15.7116006,26.5462536 C15.2707673,26.987087 15.2723167,27.7073456 15.7175144,28.1525433 C16.165816,28.6008448 16.8818725,28.6003887 17.3238041,28.1584571 L22.4350288,23.0472323 L27.5462536,28.1584571 C27.987087,28.5992904 28.7073456,28.597741 29.1525433,28.1525433 C29.6008448,27.7042417 29.6003887,26.9881852 29.1584571,26.5462536 L24.0472323,21.4350288 L29.1584571,16.3238041 C29.5992904,15.8829707 29.597741,15.1627121 29.1525433,14.7175144 C28.7042417,14.2692129 27.9881852,14.269669 27.5462536,14.7116006 L22.4350288,19.8228254 L17.3238041,14.7116006 C16.8829707,14.2707673 16.1627121,14.2723167 15.7175144,14.7175144 C15.2692129,15.165816 15.269669,15.8818725 15.7116006,16.3238041 L20.8228254,21.4350288 Z" id="cross"></path>
                </g>
            </g>
        </g>
    </g>
</svg>