<?xml version="1.0" encoding="UTF-8"?>
<svg width="44px" height="44px" viewBox="0 0 44 44" version="1.1" xmlns="http://www.w3.org/2000/svg" xmlns:xlink="http://www.w3.org/1999/xlink">
    <!-- Generator: Sketch 45.1 (43504) - http://www.bohemiancoding.com/sketch -->
    <title>fb</title>
    <desc>Created with Sketch.</desc>
    <defs></defs>
    <g id="v2" stroke="none" stroke-width="1" fill="none" fill-rule="evenodd">
        <g id="1366_header-3" transform="translate(-1080.000000, -206.000000)">
            <g id="Group-5" transform="translate(844.000000, 19.000000)">
                <g id="fb" transform="translate(236.000000, 187.000000)">
                    <rect id="bg" fill="#095EB1" x="0" y="0" width="44" height="44" rx="22"></rect>
                    <path d="M23.0905172,20.7 L26.0030172,20.7 C26.0030172,20.7 26.3043103,19.8 26.4047414,18.5 L26.4047414,18.3 L26.4047414,18.3 C26.4047414,18.2 26.4047414,18.5 26.4047414,18.4 L26.4047414,18.4 L26.4047414,18.2 L26.4047414,18.2 L26.4047414,17.9 L22.9900862,17.9 L22.9900862,14.7 C22.9900862,14.4 23.4922414,13.9 23.8939655,13.9 L26.0030172,13.9 L26.0030172,11 L24.1952586,11 C20.3788793,11 20.0775862,14.4 20.0775862,14.9 L20.0775862,18 L18.0689655,18 L18.0689655,19.3 L18.0689655,21 L20.0775862,21 L20.0775862,26.6 L20.0775862,30 L23.0905172,30 L23.0905172,26.6 L23.0905172,20.7 L23.0905172,20.7 Z" id="Shape" fill="#FFFFFF"></path>
                </g>
            </g>
        </g>
    </g>
</svg>