<?xml version="1.0" encoding="UTF-8"?>
<svg width="44px" height="44px" viewBox="0 0 44 44" version="1.1" xmlns="http://www.w3.org/2000/svg" xmlns:xlink="http://www.w3.org/1999/xlink">
    <!-- Generator: Sketch 45.1 (43504) - http://www.bohemiancoding.com/sketch -->
    <title>vk</title>
    <desc>Created with Sketch.</desc>
    <defs></defs>
    <g id="v2" stroke="none" stroke-width="1" fill="none" fill-rule="evenodd">
        <g id="1366_header-3" transform="translate(-1026.000000, -206.000000)">
            <g id="Group-5" transform="translate(844.000000, 19.000000)">
                <g id="vk" transform="translate(182.000000, 187.000000)">
                    <rect id="bg" fill="#4D75A3" x="0" y="0" width="44" height="44" rx="22"></rect>
                    <path d="M27.6487717,21.6957646 C27.6487717,21.6957646 30.2840216,18.0082413 30.5458856,16.7963703 C30.6331246,16.3635905 30.4411547,16.1210996 29.9873208,16.1210996 L27.7011739,16.1210996 C27.1775929,16.1210996 26.985623,16.3461655 26.8285634,16.6751249 C26.8285634,16.6751249 25.5925184,19.2877706 24.0885827,20.9340984 C23.6057916,21.4663242 23.3603171,21.6265023 23.0938229,21.6265023 C22.878849,21.6265023 22.7797037,21.4487535 22.7797037,20.9686566 L22.7797037,16.7617392 C22.7797037,16.1731557 22.7098831,16 22.2212859,16 L18.556366,16 C18.2770836,16 18.1025321,16.161053 18.1025321,16.3807967 C18.1025321,16.9351136 18.9577242,17.060296 18.9577242,18.5621937 L18.9577242,21.6611335 C18.9577242,22.284421 18.9228139,22.526766 18.6261131,22.526766 C17.8408151,22.526766 15.9734449,19.8433999 14.9263564,16.7963703 C14.7168946,16.1731557 14.4900144,16 13.8966128,16 L11.6104659,16 C11.2788549,16 11.0344828,16.224993 11.0344828,16.5538794 C11.0344828,17.1598149 11.7500336,19.9644995 14.559835,23.7213579 C16.4446236,26.2489205 18.9228139,27.6165951 21.1566321,27.6165951 C22.5179132,27.6165951 22.8495243,27.3916021 22.8495243,26.8202248 L22.8495243,24.8812458 C22.8495243,24.3964828 23.0414942,24.1887689 23.3207031,24.1887689 C23.6348223,24.1887689 24.1892713,24.2888711 25.4847742,25.5564436 C27.0205333,27.0107325 27.1252642,27.6165951 27.9630379,27.6165951 L30.5283937,27.6165951 C30.7901842,27.6165951 31.0344828,27.4954226 31.0344828,27.0626428 C31.0344828,26.4912655 30.2840216,25.4699022 29.1322022,24.2579583 C28.6610234,23.6347436 27.8931438,22.9596188 27.6487717,22.6480115 C27.2998157,22.284421 27.4044731,22.0765613 27.6487717,21.6957646" id="Fill-1" fill="#FFFFFF"></path>
                </g>
            </g>
        </g>
    </g>
</svg>