<?xml version="1.0" encoding="UTF-8"?>
<svg width="20px" height="21px" viewBox="0 0 20 21" version="1.1" xmlns="http://www.w3.org/2000/svg" xmlns:xlink="http://www.w3.org/1999/xlink">
    <!-- Generator: Sketch 46.1 (44463) - http://www.bohemiancoding.com/sketch -->
    <title>cal</title>
    <desc>Created with Sketch.</desc>
    <defs></defs>
    <g id="v2" stroke="none" stroke-width="1" fill="none" fill-rule="evenodd">
        <g id="1366_add_check-in" transform="translate(-472.000000, -726.000000)" fill="#FF7424">
            <g id="popup" transform="translate(433.000000, 399.000000)">
                <g id="input" transform="translate(20.000000, 317.000000)">
                    <g id="cal" transform="translate(19.000000, 10.000000)">
                        <path d="M2,2 C1.44771525,2 1,2.44771525 1,3 L1,19 C1,19.5522847 1.44771525,20 2,20 L18,20 C18.5522847,20 19,19.5522847 19,19 L19,3 C19,2.44771525 18.5522847,2 18,2 L2,2 Z M2,1 L18,1 C19.1045695,1 20,1.8954305 20,3 L20,19 C20,20.1045695 19.1045695,21 18,21 L2,21 C0.8954305,21 1.3527075e-16,20.1045695 0,19 L0,3 C-1.3527075e-16,1.8954305 0.8954305,1 2,1 Z" id="shape" fill-rule="nonzero"></path>
                        <rect id="Rectangle-10" x="0" y="6" width="20" height="1"></rect>
                        <g id="Group-2" transform="translate(5.000000, 10.000000)">
                            <rect id="shape" x="0" y="0" width="2" height="1"></rect>
                            <rect id="shape" x="0" y="3" width="2" height="1"></rect>
                            <rect id="shape" x="0" y="6" width="2" height="1"></rect>
                            <rect id="shape" x="4" y="0" width="2" height="1"></rect>
                            <rect id="shape" x="4" y="3" width="2" height="1"></rect>
                            <rect id="shape" x="4" y="6" width="2" height="1"></rect>
                            <rect id="shape" x="8" y="0" width="2" height="1"></rect>
                            <rect id="shape" x="8" y="3" width="2" height="1"></rect>
                        </g>
                        <rect id="Rectangle-11" x="5" y="0" width="1" height="3"></rect>
                        <rect id="Rectangle-11" x="14" y="0" width="1" height="3"></rect>
                    </g>
                </g>
            </g>
        </g>
    </g>
</svg>