<?xml version="1.0" encoding="UTF-8"?>
<svg width="20px" height="25px" viewBox="0 0 20 25" version="1.1" xmlns="http://www.w3.org/2000/svg" xmlns:xlink="http://www.w3.org/1999/xlink">
    <!-- Generator: Sketch 45.1 (43504) - http://www.bohemiancoding.com/sketch -->
    <title>icon_tab_check_in</title>
    <desc>Created with Sketch.</desc>
    <defs></defs>
    <g id="v2" stroke="none" stroke-width="1" fill="none" fill-rule="evenodd">
        <g id="360_sidebar" transform="translate(-20.000000, -162.000000)" fill="#999999">
            <g id="item" transform="translate(0.000000, 150.000000)">
                <g id="check-in" transform="translate(8.000000, 2.000000)">
                    <g id="icon_tab_check_in" transform="translate(12.000000, 10.000000)">
                        <path d="M10,14 C7.8,14 6,12.2 6,10 C6,7.8 7.8,6 10,6 C12.2,6 14,7.8 14,10 C14,12.2 12.2,14 10,14 L10,14 Z M10,8 C8.9,8 8,8.9 8,10 C8,11.1 8.9,12 10,12 C11.1,12 12,11.1 12,10 C12,8.9 11.1,8 10,8 L10,8 Z" id="Shape"></path>
                        <path d="M9.9,2 C14.3,2 17.8,5.6 17.8,10 C17.8,11.2 17.4,12.6 17,13.6 C15.8,16.3 10,23 10,23 C10,23 4.2,16.3 3,13.6 C2.5,12.6 2.2,11.2 2.2,10 C2,5.6 5.6,2 9.9,2 L9.9,2 Z M9.9,0 C4.5,0 0,4.5 0,10 C0,11.4 0.4,13 1,14.4 C2.3,17.3 7.7,23.6 8.3,24.3 C8.7,24.7 9.2,25 9.8,25 C10.4,25 10.9,24.7 11.3,24.3 C11.9,23.6 17.3,17.3 18.6,14.4 C19.2,13 19.6,11.3 19.6,10 C19.8,4.5 15.3,0 9.9,0 L9.9,0 L9.9,0 Z" id="Shape"></path>
                    </g>
                </g>
            </g>
        </g>
    </g>
</svg>